[
  {
    "name": "jaune",
    "audioName": "time1000.wav",
    "time": {
      "hours": 10,
      "minutes": 0
    },
    "audioPath": "resources/audio/time1000.wav"
  },
  {
    "name": "dore",
    "audioName": "time1030.wav",
    "time": {
      "hours": 10,
      "minutes": 30
    },
    "audioPath": "resources/audio/time1030.wav"
  },
  {
    "name": "rouge",
    "audioName": "time1100.wav",
    "time": {
      "hours": 11,
      "minutes": 0
    },
    "audioPath": "resources/audio/time1100.wav"
  },
  {
    "name": "bleu",
    "audioName": "time1130.wav",
    "time": {
      "hours": 11,
      "minutes": 30
    },
    "audioPath": "resources/audio/time1130.wav"
  },
  {
    "name": "violet",
    "audioName": "time1230.wav",
    "time": {
      "hours": 12,
      "minutes": 30
    },
    "audioPath": "resources/audio/time1230.wav"
  },
  {
    "name": "vert",
    "audioName": "time1300.wav",
    "time": {
      "hours": 13,
      "minutes": 0
    },
    "audioPath": "resources/audio/time1300.wav"
  },
  {
    "name": "rose",
    "audioName": "time1400.wav",
    "time": {
      "hours": 13,
      "minutes": 30
    },
    "audioPath": "resources/audio/time1330.wav"
  },
  {
    "name": "orange",
    "audioName": "time1400.wav",
    "time": {
      "hours": 14,
      "minutes": 0
    },
    "audioPath": "resources/audio/time1400.wav"
  },
  {
    "name": "jaune",
    "audioName": "time1430.wav",
    "time": {
      "hours": 14,
      "minutes": 30
    },
    "audioPath": "resources/audio/time1430.wav"
  },
  {
    "name": "dore",
    "audioName": "time1500.wav",
    "time": {
      "hours": 15,
      "minutes": 0
    },
    "audioPath": "resources/audio/time1500.wav"
  },
  {
    "name": "rouge",
    "audioName": "time1530.wav",
    "time": {
      "hours": 15,
      "minutes": 30
    },
    "audioPath": "resources/audio/time1530.wav"
  },
  {
    "name": "bleu",
    "audioName": "time1600.wav",
    "time": {
      "hours": 16,
      "minutes": 0
    },
    "audioPath": "resources/audio/time1600.wav"
  },
  {
    "name": "noir",
    "audioName": "time1630.wav",
    "time": {
      "hours": 16,
      "minutes": 30
    },
    "audioPath": "resources/audio/time1630.wav"
  },
  {
    "name": "violet",
    "audioName": "time1700.wav",
    "time": {
      "hours": 17,
      "minutes": 0
    },
    "audioPath": "resources/audio/time1700.wav"
  },
  {
    "name": "vert",
    "audioName": "time1730.wav",
    "time": {
      "hours": 17,
      "minutes": 30
    },
    "audioPath": "resources/audio/time1730.wav"
  },
  {
    "name": "rose",
    "audioName": "time1800.wav",
    "time": {
      "hours": 18,
      "minutes": 0
    },
    "audioPath": "resources/audio/time1800.wav"
  },
  {
    "name": "orange",
    "audioName": "time1830.wav",
    "time": {
      "hours": 18,
      "minutes": 30
    },
    "audioPath": "resources/audio/time1830.wav"
  },
  {
    "name": "jaune",
    "audioName": "time1900.wav",
    "time": {
      "hours": 19,
      "minutes": 0
    },
    "audioPath": "resources/audio/time1900.wav"
  },
  {
    "name": "dore",
    "audioName": "time1930.wav",
    "time": {
      "hours": 19,
      "minutes": 30
    },
    "audioPath": "resources/audio/time1930.wav"
  },
  {
    "name": "rouge",
    "audioName": "time2000.wav",
    "time": {
      "hours": 20,
      "minutes": 0
    },
    "audioPath": "resources/audio/time2000.wav"
  },
  {
    "name": "bleu",
    "audioName": "time2030.wav",
    "time": {
      "hours": 20,
      "minutes": 30
    },
    "audioPath": "resources/audio/time2030.wav"
  },
  {
    "name": "violet",
    "audioName": "time2130.wav",
    "time": {
      "hours": 21,
      "minutes": 30
    },
    "audioPath": "resources/audio/time2130.wav"
  },
  {
    "name": "vert",
    "audioName": "time2200.wav",
    "time": {
      "hours": 22,
      "minutes": 0
    },
    "audioPath": "resources/audio/time2200.wav"
  }
]